﻿# Anbennar: commented vanilla stuff

apa_roaming_feather = {
	icon = prestige

	is_valid = {
		is_current_phase_active = yes
		NOT = { has_variable = apa_roaming_feather }
		any_attending_character = { has_perk = roaming_perk }
	}

	weight = {
		value = roaming_apa_fame_chance_value
	}

	effect = {
		random_attending_character = {
			limit = { has_perk = roaming_perk }
			save_scope_as = first
		}
		set_variable = apa_roaming_feather
		add_activity_log_entry = {
			key = apa_roaming_feather_key
			tags = { pulse_action }
			character = scope:first
			scope:first = {
				roaming_fame_reward_event_effect = { VALUE = roaming_reward_fame_medium }
			}
		}
	}
}

apa_roaming_ancient_runestone = {
	icon = learning

	is_valid = {
		is_current_phase_active = yes
		activity_location = { 
			OR = {
				# geographical_region = ghw_region_scandinavia # Anbennar
				county = { has_county_modifier = county_raised_runestone_modifier }
			}
		}
		NOT = { has_variable = apa_roaming_ancient_runestone }
	}

	weight = {
		value = roaming_apa_rare_chance_value
		if = {
			limit = {
				scope:host = { has_trait = lifestyle_mystic }
			}
			multiply = 2.5
		}
	}

	effect = {
		random_attending_character = {
			limit = { has_perk = roaming_perk }
			weight = {
				modifier = {
					factor = 10
					has_trait = lifestyle_mystic
				}
			}
			save_scope_as = first
		}
		save_scope_value_as = {
			name = mystic_xp
			value = { integer_range = { min = 2 max = 4 } }
		}
		set_variable = apa_roaming_ancient_runestone
		add_activity_log_entry = {
			key = apa_roaming_ancient_runestone_key
			tags = { pulse_action }
			character = scope:first
			scope:first = {
				roaming_fame_reward_event_effect = { VALUE = roaming_reward_fame_high }
				roaming_mystic_xp_APA_effect = { REWARD = scope:mystic_xp }
			}
		}
	}
}

apa_roaming_ancient_megalith = {
	icon = learning

	is_valid = {
		is_current_phase_active = yes
		activity_location = { 
			NOR = {
				# geographical_region = ghw_region_scandinavia # Anbennar
				county = { has_county_modifier = county_raised_runestone_modifier }
			}
		}
		NOT = { has_variable = apa_roaming_ancient_megalith }
	}

	weight = {
		value = roaming_apa_rare_chance_value
		if = {
			limit = {
				scope:host = { has_trait = lifestyle_mystic }
			}
			multiply = 2.5
		}
	}

	effect = {
		random_attending_character = {
			limit = { has_perk = roaming_perk }
			weight = {
				modifier = {
					factor = 10
					has_trait = lifestyle_mystic
				}
			}
			save_scope_as = first
		}
		save_scope_value_as = {
			name = mystic_xp
			value = { integer_range = { min = 2 max = 4 } }
		}
		set_variable = apa_roaming_ancient_megalith
		add_activity_log_entry = {
			key = apa_roaming_ancient_megalith_key
			tags = { pulse_action }
			character = scope:first
			scope:first = {
				roaming_fame_reward_event_effect = { VALUE = roaming_reward_fame_high }
				roaming_mystic_xp_APA_effect = { REWARD = scope:mystic_xp }
			}
		}
	}
}

apa_roaming_natural_arch = {
	icon = prestige

	is_valid = {
		is_current_phase_active = yes
		any_attending_character = { has_perk = roaming_perk }
		activity_location = { 
			OR = {
				terrain = mountains
				terrain = desert_mountains
				terrain = hills
				terrain = forest
				terrain = taiga
				terrain = wetlands
				terrain = desert
				terrain = drylands
				terrain = jungle
			}
		}
		NOT = { has_variable = apa_roaming_natural_arch }
	}

	weight = {
		value = roaming_apa_fame_chance_value
	}

	effect = {
		random_attending_character = {
			limit = { has_perk = roaming_perk }
			save_scope_as = first
		}
		set_variable = apa_roaming_natural_arch
		add_activity_log_entry = {
			key = apa_roaming_natural_arch_key
			tags = { pulse_action }
			character = scope:first
			scope:first = {
				roaming_fame_reward_event_effect = { VALUE = roaming_reward_fame_medium }
			}
		}
	}
}

apa_roaming_coast_seashells = {
	icon = money

	is_valid = {
		is_current_phase_active = yes
		activity_location = { is_coastal = yes }
		NOT = { has_variable = apa_roaming_coast_seashells }
	}

	weight = {
		value = roaming_apa_gold_chance_value
	}

	effect = {
		random_attending_character = {
			save_scope_as = first
		}
		save_scope_value_as = {
			name = gold_value
			value = {
				add = scope:first.tiny_gold_value
				max = 20
			}
		}
		set_variable = apa_roaming_coast_seashells
		add_activity_log_entry = {
			key = apa_roaming_coast_seashells_key
			tags = { pulse_action }
			character = scope:first
			scope:first = {
				roaming_gold_reward_APA_effect = { REWARD = scope:gold_value }
			}
		}
	}
}

apa_roaming_forest_gnarled_oak = {
	icon = prestige

	is_valid = {
		is_current_phase_active = yes
		any_attending_character = { has_perk = roaming_perk }
		activity_location = { 
			OR = {
				terrain = hills
				terrain = forest
				terrain = taiga
				terrain = plains
				terrain = farmlands
				terrain = mountains
				terrain = steppe
				terrain = wetlands
			}
		}
		NOT = { has_variable = apa_roaming_forest_gnarled_oak }
	}

	weight = {
		value = roaming_apa_fame_chance_value
	}

	effect = {
		random_attending_character = {
			limit = { has_perk = roaming_perk }
			save_scope_as = first
		}
		set_variable = apa_roaming_forest_gnarled_oak
		add_activity_log_entry = {
			key = apa_roaming_forest_gnarled_oak_key
			tags = { pulse_action }
			character = scope:first
			scope:first = {
				roaming_fame_reward_event_effect = { VALUE = roaming_reward_fame_very_small }
			}
		}
	}
}

apa_roaming_rabbit_family = {
	icon = stress_loss

	is_valid = {
		is_current_phase_active = yes
		activity_location = { 
			NOR = {
				terrain = desert
				terrain = desert_mountains
				terrain = drylands
			}
		}
		NOT = { has_variable = apa_roaming_rabbit_family }
	}

	weight = {
		value = roaming_apa_stress_chance_value
	}

	effect = {
		random_attending_character = {
			save_scope_as = first
		}
		save_scope_value_as = {
			name = stress_loss
			value = { integer_range = { min = -5 max = -3 } }
		}
		set_variable = apa_roaming_rabbit_family
		add_activity_log_entry = {
			key = apa_roaming_rabbit_family_key
			tags = { pulse_action }
			character = scope:first
			scope:first = {
				roaming_stress_reward_APA_effect = { REWARD = scope:stress_loss }
			}
		}
	}
}

apa_roaming_desert_lilies = {
	icon = prestige

	is_valid = {
		is_current_phase_active = yes
		any_attending_character = { has_perk = roaming_perk }
		activity_location = { 
			OR = {
				terrain = desert
				terrain = desert_mountains
				terrain = drylands
			}
		}
		NOT = { has_variable = apa_roaming_desert_lilies }
	}

	weight = {
		value = roaming_apa_fame_chance_value
	}

	effect = {
		random_attending_character = {
			limit = { has_perk = roaming_perk }
			save_scope_as = first
		}
		set_variable = apa_roaming_desert_lilies
		add_activity_log_entry = {
			key = apa_roaming_desert_lilies_key
			tags = { pulse_action }
			character = scope:first
			scope:first = {
				roaming_fame_reward_event_effect = { VALUE = roaming_reward_fame_small }
			}
		}
	}
}

apa_roaming_desert_lilies_oasis = {
	icon = prestige

	is_valid = {
		is_current_phase_active = yes
		any_attending_character = { has_perk = roaming_perk }
		activity_location = { 
			terrain = oasis
		}
		NOT = { has_variable = apa_roaming_desert_lilies_oasis }
	}

	weight = {
		value = roaming_apa_fame_chance_value
	}

	effect = {
		random_attending_character = {
			limit = { has_perk = roaming_perk }
			save_scope_as = first
		}
		set_variable = apa_roaming_desert_lilies_oasis
		add_activity_log_entry = {
			key = apa_roaming_desert_lilies_oasis_key
			tags = { pulse_action }
			character = scope:first
			scope:first = {
				roaming_fame_reward_event_effect = { VALUE = roaming_reward_fame_small }
			}
		}
	}
}

apa_roaming_desert_fox = {
	icon = stress_loss

	is_valid = {
		is_current_phase_active = yes
		activity_location = { 
			OR = {
				terrain = desert
				terrain = desert_mountains
				terrain = drylands
			}
		}
		NOT = { has_variable = apa_roaming_desert_fox }
	}

	weight = {
		value = roaming_apa_stress_chance_value
	}

	effect = {
		random_attending_character = {
			save_scope_as = first
		}
		save_scope_value_as = {
			name = stress_loss
			value = { integer_range = { min = -5 max = -3 } }
		}
		set_variable = apa_roaming_desert_fox
		add_activity_log_entry = {
			key = apa_roaming_desert_fox_key
			tags = { pulse_action }
			character = scope:first
			scope:first = {
				roaming_stress_reward_APA_effect = { REWARD = scope:stress_loss }
			}
		}
	}
}

apa_roaming_mountain_river = {
	icon = stress_loss

	is_valid = {
		is_current_phase_active = yes
		activity_location = { 
			OR = {
				terrain = mountains
				terrain = desert_mountains
				terrain = hills
			}
		}
		NOT = { has_variable = apa_roaming_mountain_river }
	}

	weight = {
		value = roaming_apa_stress_chance_value
	}

	effect = {
		random_attending_character = {
			save_scope_as = first
		}
		save_scope_value_as = {
			name = stress_loss
			value = { integer_range = { min = -5 max = -3 } }
		}
		set_variable = apa_roaming_mountain_river
		add_activity_log_entry = {
			key = apa_roaming_mountain_river_key
			tags = { pulse_action }
			character = scope:first
			scope:first = {
				roaming_stress_reward_APA_effect = { REWARD = scope:stress_loss }
			}
		}
	}
}

apa_roaming_lonely_yurt = {
	icon = stress_loss

	is_valid = {
		is_current_phase_active = yes
		activity_location = { 
			terrain = steppe
		}
		NOT = { has_variable = apa_roaming_lonely_yurt }
	}

	weight = {
		value = roaming_apa_stress_chance_value
	}

	effect = {
		random_attending_character = {
			save_scope_as = first
		}
		save_scope_value_as = {
			name = stress_loss
			value = { integer_range = { min = -5 max = -3 } }
		}
		set_variable = apa_roaming_lonely_yurt
		add_activity_log_entry = {
			key = apa_roaming_lonely_yurt_key
			tags = { pulse_action }
			character = scope:first
			scope:first = {
				roaming_stress_reward_APA_effect = { REWARD = scope:stress_loss }
			}
		}
	}
}

apa_roaming_standing_stone = {
	icon = prestige

	is_valid = {
		is_current_phase_active = yes
		any_attending_character = { has_perk = roaming_perk }
		NOT = { has_variable = apa_roaming_standing_stone }
	}

	weight = {
		value = roaming_apa_fame_chance_value
	}

	effect = {
		random_attending_character = {
			limit = { has_perk = roaming_perk }
			save_scope_as = first
		}
		set_variable = apa_roaming_standing_stone
		add_activity_log_entry = {
			key = apa_roaming_standing_stone_key
			tags = { pulse_action }
			character = scope:first
			scope:first = {
				roaming_fame_reward_event_effect = { VALUE = roaming_reward_fame_medium }
			}
		}
	}
}

apa_roaming_wildflowers = {
	icon = prestige

	is_valid = {
		is_current_phase_active = yes
		any_attending_character = { has_perk = roaming_perk }
		activity_location = { 
			OR = {
				terrain = plains
				terrain = steppe
				terrain = hills
				terrain = mountains
			}
		}
		NOT = { has_variable = apa_roaming_wildflowers }
	}

	weight = {
		value = roaming_apa_fame_chance_value
	}

	effect = {
		random_attending_character = {
			limit = { has_perk = roaming_perk }
			save_scope_as = first
		}
		set_variable = apa_roaming_wildflowers
		add_activity_log_entry = {
			key = apa_roaming_wildflowers_key
			tags = { pulse_action }
			character = scope:first
			scope:first = {
				roaming_fame_reward_event_effect = { VALUE = roaming_reward_fame_small }
			}
		}
	}
}

apa_roaming_lost_sheep = {
	icon = prestige

	is_valid = {
		is_current_phase_active = yes
		any_attending_character = { has_perk = roaming_perk }
		activity_location = { 
			terrain = farmlands
		}
		NOT = { has_variable = apa_roaming_lost_sheep }
	}

	weight = {
		value = roaming_apa_fame_chance_value
	}

	effect = {
		random_attending_character = {
			limit = { has_perk = roaming_perk }
			save_scope_as = first
		}
		set_variable = apa_roaming_lost_sheep
		add_activity_log_entry = {
			key = apa_roaming_lost_sheep_key
			tags = { pulse_action }
			character = scope:first
			scope:first = {
				roaming_fame_reward_event_effect = { VALUE = roaming_reward_fame_very_small }
			}
		}
	}
}

apa_roaming_friendly_dog = {
	icon = stress_loss

	is_valid = {
		is_current_phase_active = yes
		activity_location = { 
			terrain = farmlands
		}
		NOT = { has_variable = apa_roaming_friendly_dog }
	}

	weight = {
		value = roaming_apa_stress_chance_value
	}

	effect = {
		random_attending_character = {
			save_scope_as = first
		}
		save_scope_value_as = {
			name = stress_loss
			value = { integer_range = { min = -5 max = -3 } }
		}
		set_variable = apa_roaming_friendly_dog
		add_activity_log_entry = {
			key = apa_roaming_friendly_dog_key
			tags = { pulse_action }
			character = scope:first
			scope:first = {
				roaming_stress_reward_APA_effect = { REWARD = scope:stress_loss }
			}
		}
	}
}

apa_roaming_grazing_cattle = {
	icon = prestige

	is_valid = {
		is_current_phase_active = yes
		any_attending_character = { has_perk = roaming_perk }
		activity_location = { 
			terrain = plains
		}
		NOT = { has_variable = apa_roaming_grazing_cattle }
	}

	weight = {
		value = roaming_apa_fame_chance_value
	}

	effect = {
		random_attending_character = {
			limit = { has_perk = roaming_perk }
			save_scope_as = first
		}
		set_variable = apa_roaming_grazing_cattle
		add_activity_log_entry = {
			key = apa_roaming_grazing_cattle_key
			tags = { pulse_action }
			character = scope:first
			scope:first = {
				roaming_fame_reward_event_effect = { VALUE = roaming_reward_fame_very_small }
			}
		}
	}
}

apa_roaming_rock_outcrop_plains = {
	icon = prestige

	is_valid = {
		is_current_phase_active = yes
		any_attending_character = { has_perk = roaming_perk }
		activity_location = { 
			OR = {
				terrain = plains
				terrain = steppe
			}
		}
		NOT = { has_variable = apa_roaming_rock_outcrop_plains }
	}

	weight = {
		value = roaming_apa_fame_chance_value
	}

	effect = {
		random_attending_character = {
			limit = { has_perk = roaming_perk }
			save_scope_as = first
		}
		set_variable = apa_roaming_rock_outcrop_plains
		add_activity_log_entry = {
			key = apa_roaming_rock_outcrop_plains_key
			tags = { pulse_action }
			character = scope:first
			scope:first = {
				roaming_fame_reward_event_effect = { VALUE = roaming_reward_fame_very_small }
			}
		}
	}
}

apa_roaming_rock_outcrop_hills = {
	icon = prestige

	is_valid = {
		is_current_phase_active = yes
		any_attending_character = { has_perk = roaming_perk }
		activity_location = { 
			OR = {
				terrain = hills
				terrain = mountains
				terrain = desert_mountains
			}
		}
		NOT = { has_variable = apa_roaming_rock_outcrop_hills }
	}

	weight = {
		value = roaming_apa_fame_chance_value
	}

	effect = {
		random_attending_character = {
			limit = { has_perk = roaming_perk }
			save_scope_as = first
		}
		set_variable = apa_roaming_rock_outcrop_hills
		add_activity_log_entry = {
			key = apa_roaming_rock_outcrop_hills_key
			tags = { pulse_action }
			character = scope:first
			scope:first = {
				roaming_fame_reward_event_effect = { VALUE = roaming_reward_fame_medium }
			}
		}
	}
}

apa_roaming_waterfall = {
	icon = stress_loss

	is_valid = {
		is_current_phase_active = yes
		activity_location = { 
			NOR = {
				terrain = desert
				terrain = desert_mountains
				terrain = oasis
				terrain = drylands
			}
		}
		NOT = { has_variable = apa_roaming_waterfall }
	}

	weight = {
		value = roaming_apa_stress_chance_value
	}

	effect = {
		random_attending_character = {
			save_scope_as = first
		}
		save_scope_value_as = {
			name = stress_loss
			value = { integer_range = { min = -5 max = -3 } }
		}
		set_variable = apa_roaming_waterfall
		add_activity_log_entry = {
			key = apa_roaming_waterfall_key
			tags = { pulse_action }
			character = scope:first
			scope:first = {
				roaming_stress_reward_APA_effect = { REWARD = scope:stress_loss }
			}
		}
	}
}

apa_roaming_heron = {
	icon = prestige

	is_valid = {
		is_current_phase_active = yes
		any_attending_character = { has_perk = roaming_perk }
		activity_location = { 
			OR = {
				terrain = wetlands
				terrain = floodplains
			}
		}
		NOT = { has_variable = apa_roaming_heron }
	}

	weight = {
		value = roaming_apa_fame_chance_value
	}

	effect = {
		random_attending_character = {
			limit = { has_perk = roaming_perk }
			save_scope_as = first
		}
		set_variable = apa_roaming_heron
		add_activity_log_entry = {
			key = apa_roaming_heron_key
			tags = { pulse_action }
			character = scope:first
			scope:first = {
				roaming_fame_reward_event_effect = { VALUE = roaming_reward_fame_very_small }
			}
		}
	}
}

apa_roaming_dragonfly = {
	icon = prestige

	is_valid = {
		is_current_phase_active = yes
		any_attending_character = { has_perk = roaming_perk }
		activity_location = { 
			OR = {
				terrain = wetlands
				terrain = floodplains
			}
		}
		NOT = { has_variable = apa_roaming_dragonfly }
	}

	weight = {
		value = roaming_apa_fame_chance_value
	}

	effect = {
		random_attending_character = {
			limit = { has_perk = roaming_perk }
			save_scope_as = first
		}
		set_variable = apa_roaming_dragonfly
		add_activity_log_entry = {
			key = apa_roaming_dragonfly_key
			tags = { pulse_action }
			character = scope:first
			scope:first = {
				roaming_fame_reward_event_effect = { VALUE = roaming_reward_fame_very_small }
			}
		}
	}
}

apa_roaming_ducklings = {
	icon = stress_loss

	is_valid = {
		is_current_phase_active = yes
		activity_location = { 
			OR = {
				terrain = wetlands
				terrain = floodplains
			}
		}
		NOT = { has_variable = apa_roaming_ducklings }
	}

	weight = {
		value = roaming_apa_stress_chance_value
	}

	effect = {
		random_attending_character = {
			save_scope_as = first
		}
		save_scope_value_as = {
			name = stress_loss
			value = { integer_range = { min = -3 max = -1 } }
		}
		set_variable = apa_roaming_ducklings
		add_activity_log_entry = {
			key = apa_roaming_ducklings_key
			tags = { pulse_action }
			character = scope:first
			scope:first = {
				roaming_stress_reward_APA_effect = { REWARD = scope:stress_loss }
			}
		}
	}
}

apa_roaming_dates = {
	icon = stress_loss

	is_valid = {
		is_current_phase_active = yes
		activity_location = { 
			OR = {
				terrain = wetlands
				terrain = floodplains
			}
		}
		NOT = { has_variable = apa_roaming_dates }
	}

	weight = {
		value = roaming_apa_stress_chance_value
	}

	effect = {
		random_attending_character = {
			save_scope_as = first
		}
		save_scope_value_as = {
			name = stress_loss
			value = { integer_range = { min = -5 max = -3 } }
		}
		set_variable = apa_roaming_dates
		add_activity_log_entry = {
			key = apa_roaming_dates_key
			tags = { pulse_action }
			character = scope:first
			scope:first = {
				roaming_stress_reward_APA_effect = { REWARD = scope:stress_loss }
			}
		}
	}
}

apa_roaming_oasis_shelter = {
	icon = stress_loss

	is_valid = {
		is_current_phase_active = yes
		activity_location = { 
			terrain = oasis
		}
		NOT = { has_variable = apa_roaming_oasis_shelter }
	}

	weight = {
		value = roaming_apa_stress_chance_value
	}

	effect = {
		random_attending_character = {
			save_scope_as = first
		}
		save_scope_value_as = {
			name = stress_loss
			value = { integer_range = { min = -5 max = -3 } }
		}
		set_variable = apa_roaming_oasis_shelter
		add_activity_log_entry = {
			key = apa_roaming_oasis_shelter_key
			tags = { pulse_action }
			character = scope:first
			scope:first = {
				roaming_stress_reward_APA_effect = { REWARD = scope:stress_loss }
			}
		}
	}
}

apa_roaming_oasis_traders = {
	icon = money

	is_valid = {
		is_current_phase_active = yes
		activity_location = {
			terrain = oasis
		}
		NOT = { has_variable = apa_roaming_oasis_traders }
	}

	weight = {
		value = roaming_apa_gold_chance_value
	}

	effect = {
		random_attending_character = {
			save_scope_as = first
		}
		save_scope_value_as = {
			name = gold_value
			value = {
				add = scope:first.tiny_gold_value
				max = 20
			}
		}
		set_variable = apa_roaming_oasis_traders
		add_activity_log_entry = {
			key = apa_roaming_oasis_traders_key
			tags = { pulse_action }
			character = scope:first
			scope:first = {
				roaming_gold_reward_APA_effect = { REWARD = scope:gold_value }
			}
		}
	}
}

apa_roaming_traders = {
	icon = money

	is_valid = {
		is_current_phase_active = yes
		activity_location = {
			NOT = { terrain = oasis }
		}
		NOT = { has_variable = apa_roaming_traders }
	}

	weight = {
		value = roaming_apa_gold_chance_value
	}

	effect = {
		random_attending_character = {
			save_scope_as = first
		}
		save_scope_value_as = {
			name = gold_value
			value = {
				add = scope:first.tiny_gold_value
				max = 20
			}
		}
		set_variable = apa_roaming_traders
		add_activity_log_entry = {
			key = apa_roaming_traders_key
			tags = { pulse_action }
			character = scope:first
			scope:first = {
				roaming_gold_reward_APA_effect = { REWARD = scope:gold_value }
			}
		}
	}
}

apa_roaming_luminescent_mushrooms = {
	icon = prestige

	is_valid = {
		is_current_phase_active = yes
		any_attending_character = { has_perk = roaming_perk }
		activity_location = { 
			OR = {
				terrain = forest
				terrain = taiga
				terrain = plains
				terrain = hills
				terrain = wetlands
				terrain = jungle
				terrain = steppe
			}
		}
		NOT = { has_variable = apa_roaming_luminescent_mushrooms }
	}

	weight = {
		value = roaming_apa_fame_chance_value
	}

	effect = {
		random_attending_character = {
			limit = { has_perk = roaming_perk }
			save_scope_as = first
		}
		set_variable = apa_roaming_luminescent_mushrooms
		add_activity_log_entry = {
			key = apa_roaming_luminescent_mushrooms_key
			tags = { pulse_action }
			character = scope:first
			scope:first = {
				roaming_fame_reward_event_effect = { VALUE = roaming_reward_fame_medium }
			}
		}
	}
}

apa_roaming_wild_berries = {
	icon = stress_loss

	is_valid = {
		is_current_phase_active = yes
		activity_location = { 
			OR = {
				terrain = forest
				terrain = taiga
				terrain = plains
				terrain = hills
				terrain = wetlands
				terrain = jungle
				terrain = steppe
			}
		}
		NOT = { has_variable = apa_roaming_wild_berries }
	}

	weight = {
		value = roaming_apa_stress_chance_value
	}

	effect = {
		random_attending_character = {
			save_scope_as = first
		}
		save_scope_value_as = {
			name = stress_loss
			value = { integer_range = { min = -5 max = -3 } }
		}
		set_variable = apa_roaming_wild_berries
		add_activity_log_entry = {
			key = apa_roaming_wild_berries_key
			tags = { pulse_action }
			character = scope:first
			scope:first = {
				roaming_stress_reward_APA_effect = { REWARD = scope:stress_loss }
			}
		}
	}
}
