k_sildnamm = {
	1000.1.1 = { change_development_level = 5 }
}

d_widdechand = {
	1000.1.1 = { change_development_level = 6 }
}

c_widdechand = {
	1000.1.1 = { change_development_level = 8 }
}

c_sildnamm = {
	1000.1.1 = { change_development_level = 6 }
}