﻿# magic_missile_perk = {
# 	lifestyle = magic_lifestyle
# 	tree = magic_duelist_focus
# 	position = { 0 0 }
# 	icon = node_diplomacy

# 	auto_selection_weight = {
# 		value = 11
# 		if = {
# 			limit = {
# 				has_martial_diplomacy_trigger = yes
# 			}
# 			add = 1989
# 		}
# 		if = {
# 			limit = {
# 				can_start_new_lifestyle_tree_trigger = no
# 			}
# 			multiply = 0
# 		}
# 	}
	
# 	character_modifier = {
# 		prowess = 1
# 	}
# }

# martial_spellcasting_perk = {
# 	lifestyle = magic_lifestyle
# 	tree = magic_duelist_focus
# 	position = { 0 0.5 }
# 	icon = node_diplomacy

# 	character_modifier = {
# 		martial = 1
# 		prowess = 3
# 	}
# }

# overchannel_perk = {
# 	lifestyle = magic_lifestyle
# 	tree = magic_duelist_focus
# 	position = { 0 0.75 }
# 	icon = node_diplomacy

# 	character_modifier = {
# 		prowess = 10
# 		#something to make them die easier in battle
# 		health = -0.5
# 	}
# }


# a_wizard_and_their_party_perk = {
# 	lifestyle = magic_lifestyle
# 	tree = magic_duelist_focus
# 	position = { 0 1 }
# 	icon = node_diplomacy

# 	character_modifier = {
# 		knight_effectiveness_mult = 0.5
# 	}
# }

# mage_shield_perk = {
# 	lifestyle = magic_lifestyle
# 	tree = magic_duelist_focus
# 	position = { 0 1.25 }
# 	icon = node_diplomacy

# 	character_modifier = {
# 		prowess = 1
# 	}
	
# 	effect = {
# 		custom_description_no_bullet = {
# 			text = stalwart_leader_perk_effect
# 		}
# 	}
# }

